<?xml version="1.0" encoding="utf-8"?>
<!-- Generator: Adobe Illustrator 23.0.3, SVG Export Plug-In . SVG Version: 6.00 Build 0)  -->
<svg version="1.1" id="Layer_1" xmlns="http://www.w3.org/2000/svg" xmlns:xlink="http://www.w3.org/1999/xlink" x="0px" y="0px"
	 viewBox="0 0 584.22 510.63" style="enable-background:new 0 0 584.22 510.63;" xml:space="preserve">
<style type="text/css">
	.st0{fill:#E5E3E5;}
	.st1{fill:#222222;}
</style>
<g>
	<path class="st0" d="M375.4,452.86c0,11.58-35.67,20.97-79.68,20.97s-79.69-9.39-79.69-20.97c0-11.58,35.68-20.97,79.69-20.97
		S375.4,441.27,375.4,452.86z"/>
	<path class="st1" d="M296.03,19.32c-64.73,0-117.19,52.47-117.19,117.19c0,29.54,10.96,56.51,28.99,77.12l-0.04,0.04l88.16,240.02
		l88.13-239.9c18.12-20.63,29.13-47.66,29.13-77.28C413.21,71.79,360.75,19.32,296.03,19.32z M296.03,219.64
		c-45.92,0-83.13-37.21-83.13-83.13c0-45.91,37.22-83.13,83.13-83.13c45.91,0,83.12,37.21,83.12,83.13
		C379.16,182.43,341.94,219.64,296.03,219.64z"/>
	<g>
		<g>
			<g>
				<rect x="248.12" y="162.06" class="st1" width="95.27" height="7.21"/>
				<rect x="244.53" y="167.43" class="st1" width="103.14" height="7.21"/>
				<g>
					<rect x="253.87" y="115.23" class="st1" width="7.36" height="46.83"/>
					<rect x="279.07" y="115.23" class="st1" width="7.36" height="46.83"/>
					<rect x="304.26" y="115.23" class="st1" width="7.36" height="46.83"/>
					<rect x="329.46" y="115.23" class="st1" width="7.36" height="46.83"/>
				</g>
				<g>
					<rect x="327.95" y="156.82" class="st1" width="10.4" height="5.24"/>
					<rect x="302.75" y="156.82" class="st1" width="10.4" height="5.24"/>
					<rect x="277.55" y="156.82" class="st1" width="10.4" height="5.24"/>
					<rect x="252.35" y="156.82" class="st1" width="10.4" height="5.24"/>
				</g>
				<g>
					<rect x="327.95" y="115.46" class="st1" width="10.4" height="3.85"/>
					<rect x="302.75" y="115.46" class="st1" width="10.4" height="3.85"/>
					<rect x="277.55" y="115.46" class="st1" width="10.4" height="3.85"/>
					<rect x="252.35" y="115.46" class="st1" width="10.4" height="3.85"/>
				</g>
				<polygon class="st1" points="249.8,113.1 295.4,85.35 341,113.1 				"/>
				<rect x="249.8" y="113.1" class="st1" width="91.19" height="4.28"/>
			</g>
		</g>
	</g>
</g>
</svg>
