<?xml version="1.0" encoding="utf-8"?>
<!-- Generator: Adobe Illustrator 23.0.3, SVG Export Plug-In . SVG Version: 6.00 Build 0)  -->
<svg version="1.1" id="Layer_1" xmlns="http://www.w3.org/2000/svg" xmlns:xlink="http://www.w3.org/1999/xlink" x="0px" y="0px"
	 viewBox="0 0 584.22 510.63" style="enable-background:new 0 0 584.22 510.63;" xml:space="preserve">
<style type="text/css">
	.st0{fill:#E5E3E5;}
	.st1{fill:#C8E3B8;}
	.st2{enable-background:new    ;}
	.st3{fill:#A0B897;}
	.st4{fill:#778B72;}
	.st5{fill:#AFC8A3;}
</style>
<g>
	<path class="st0" d="M392.31,481.19c0,12.68-39.06,22.96-87.25,22.96s-87.26-10.28-87.26-22.96c0-12.68,39.07-22.96,87.26-22.96
		S392.31,468.51,392.31,481.19z"/>
	<path class="st1" d="M305.41,6.48c-70.87,0-128.33,57.45-128.33,128.32c0,32.35,12,61.87,31.75,84.44l-0.05,0.04l96.54,262.82
		l96.5-262.69c19.84-22.59,31.9-52.19,31.9-84.62C433.72,63.93,376.27,6.48,305.41,6.48z M305.41,225.82
		c-50.28,0-91.03-40.75-91.03-91.02c0-50.28,40.75-91.02,91.03-91.02c50.27,0,91.02,40.75,91.02,91.02
		C396.43,185.07,355.68,225.82,305.41,225.82z"/>
	<g>
		<g>
			<g>
				<g>
					<g class="st2">
						<g>
							<polygon class="st3" points="331.36,92.86 331.34,96.93 310.06,107.95 310.07,103.87 							"/>
						</g>
						<g>
							<polygon class="st4" points="310.07,103.87 310.06,107.95 290.98,95.58 290.99,91.51 							"/>
						</g>
						<g>
							<polygon class="st5" points="312.27,80.49 331.36,92.86 310.07,103.87 290.99,91.51 							"/>
						</g>
					</g>
				</g>
			</g>
			<g>
				<g>
					<g class="st2">
						<g>
							<polygon class="st3" points="358.81,111.39 358.8,115.46 337.51,126.48 337.52,122.41 							"/>
						</g>
						<g>
							<polygon class="st4" points="337.52,122.41 337.51,126.48 318.42,114.12 318.43,110.04 							"/>
						</g>
						<g>
							<polygon class="st5" points="339.72,99.03 358.81,111.39 337.52,122.41 318.43,110.04 							"/>
						</g>
					</g>
				</g>
			</g>
			<g>
				<g>
					<g class="st2">
						<g>
							<polygon class="st3" points="326.43,130.56 326.42,134.63 305.14,145.65 305.15,141.57 							"/>
						</g>
						<g>
							<polygon class="st4" points="305.15,141.57 305.14,145.65 286.05,133.28 286.06,129.21 							"/>
						</g>
						<g>
							<polygon class="st5" points="307.35,118.19 326.43,130.56 305.15,141.57 286.06,129.21 							"/>
						</g>
					</g>
				</g>
			</g>
			<g>
				<g>
					<g class="st2">
						<g>
							<polygon class="st3" points="386.61,128.4 386.6,132.47 365.31,143.49 365.32,139.42 							"/>
						</g>
						<g>
							<polygon class="st4" points="365.32,139.42 365.31,143.49 346.22,131.13 346.24,127.05 							"/>
						</g>
						<g>
							<polygon class="st5" points="367.52,116.04 386.61,128.4 365.32,139.42 346.24,127.05 							"/>
						</g>
					</g>
				</g>
			</g>
			<g>
				<g>
					<g class="st2">
						<g>
							<polygon class="st3" points="355.2,146.7 355.18,150.78 333.9,161.79 333.91,157.72 							"/>
						</g>
						<g>
							<polygon class="st4" points="333.91,157.72 333.9,161.79 314.82,149.43 314.83,145.35 							"/>
						</g>
						<g>
							<polygon class="st5" points="336.11,134.34 355.2,146.7 333.91,157.72 314.83,145.35 							"/>
						</g>
					</g>
				</g>
			</g>
			<g>
				<g>
					<g class="st2">
						<g>
							<polygon class="st3" points="299.03,111.11 299.02,115.19 277.74,126.2 277.75,122.12 							"/>
						</g>
						<g>
							<polygon class="st4" points="277.75,122.12 277.74,126.2 258.65,113.83 258.66,109.76 							"/>
						</g>
						<g>
							<polygon class="st5" points="279.94,98.74 299.03,111.11 277.75,122.12 258.66,109.76 							"/>
						</g>
					</g>
				</g>
			</g>
			<g>
				<g>
					<g class="st2">
						<g>
							<polygon class="st3" points="294.49,146.49 294.48,150.56 273.2,161.58 273.21,157.5 							"/>
						</g>
						<g>
							<polygon class="st4" points="273.21,157.5 273.2,161.58 254.1,149.21 254.12,145.14 							"/>
						</g>
						<g>
							<polygon class="st5" points="275.4,134.12 294.49,146.49 273.21,157.5 254.12,145.14 							"/>
						</g>
					</g>
				</g>
			</g>
			<g>
				<g>
					<g class="st2">
						<g>
							<polygon class="st3" points="322.19,165.32 322.18,169.4 300.9,180.41 300.91,176.34 							"/>
						</g>
						<g>
							<polygon class="st4" points="300.91,176.34 300.9,180.41 281.81,168.05 281.83,163.97 							"/>
						</g>
						<g>
							<polygon class="st5" points="303.1,152.96 322.19,165.32 300.91,176.34 281.83,163.97 							"/>
						</g>
					</g>
				</g>
			</g>
			<g>
				<g>
					<g class="st2">
						<g>
							<polygon class="st3" points="268,127.09 267.99,131.16 246.7,142.18 246.71,138.1 							"/>
						</g>
						<g>
							<polygon class="st4" points="246.71,138.1 246.7,142.18 227.61,129.82 227.62,125.74 							"/>
						</g>
						<g>
							<polygon class="st5" points="248.91,114.72 268,127.09 246.71,138.1 227.62,125.74 							"/>
						</g>
					</g>
				</g>
			</g>
		</g>
	</g>
</g>
</svg>
