<?xml version="1.0" encoding="utf-8"?>
<!-- Generator: Adobe Illustrator 16.0.0, SVG Export Plug-In . SVG Version: 6.00 Build 0)  -->
<!DOCTYPE svg PUBLIC "-//W3C//DTD SVG 1.1//EN" "http://www.w3.org/Graphics/SVG/1.1/DTD/svg11.dtd">
<svg version="1.1" id="Layer_1" xmlns="http://www.w3.org/2000/svg" xmlns:xlink="http://www.w3.org/1999/xlink" x="0px" y="0px"
	 width="50px" height="50px" viewBox="0 0 50 50" enable-background="new 0 0 50 50" xml:space="preserve">
<image overflow="visible" opacity="0.33" enable-background="new    " width="158" height="150" xlink:href="CAB7D04F.png"  transform="matrix(0.2354 0 0 0.2288 7.5 8.8882)">
</image>
<g>
	<g>
		<g>
			<g id="time-to-leave_10_">
				<path fill="#38B6CC" d="M34.583,15.278c-0.276-0.834-1.11-1.39-1.944-1.39H17.361c-0.973,0-1.667,0.556-1.944,1.39L12.5,23.611
					v11.112c0,0.832,0.556,1.389,1.389,1.389h1.39c0.832,0,1.389-0.557,1.389-1.389v-1.39h16.666v1.39
					c0,0.832,0.557,1.389,1.389,1.389h1.391c0.832,0,1.389-0.557,1.389-1.389V23.611L34.583,15.278z M17.361,29.167
					c-1.111,0-2.083-0.972-2.083-2.083S16.25,25,17.361,25c1.11,0,2.083,0.973,2.083,2.084S18.472,29.167,17.361,29.167z
					 M32.639,29.167c-1.109,0-2.082-0.972-2.082-2.083S31.529,25,32.639,25c1.111,0,2.084,0.973,2.084,2.084
					S33.75,29.167,32.639,29.167z M15.278,22.223l2.083-6.25h15.278l2.082,6.25H15.278z"/>
			</g>
		</g>
	</g>
</g>
</svg>
