<?xml version="1.0" encoding="utf-8"?>
<!-- Generator: Adobe Illustrator 16.0.0, SVG Export Plug-In . SVG Version: 6.00 Build 0)  -->
<!DOCTYPE svg PUBLIC "-//W3C//DTD SVG 1.1//EN" "http://www.w3.org/Graphics/SVG/1.1/DTD/svg11.dtd">
<svg version="1.1" id="Layer_1" xmlns="http://www.w3.org/2000/svg" xmlns:xlink="http://www.w3.org/1999/xlink" x="0px" y="0px"
	 width="50px" height="50px" viewBox="0 0 50 50" enable-background="new 0 0 50 50" xml:space="preserve">
<image overflow="visible" opacity="0.33" enable-background="new    " width="121" height="179" xlink:href="4837837C.png"  transform="matrix(0.238 0 0 0.232 12.1152 5.8003)">
</image>
<g>
	<g>
		<path fill="#4E72E2" d="M34.885,13.742V9.35c0-0.304-0.246-0.55-0.55-0.55h-18.67c-0.304,0-0.55,0.246-0.55,0.55v7.687v1.1v22.511
			c0,0.306,0.246,0.552,0.55,0.552h18.67c0.304,0,0.55-0.246,0.55-0.552V14.84 M24.449,40.102h-2.195v-4.945h2.195V40.102z
			 M27.744,40.102h-2.195v-4.945h2.195V40.102z"/>
	</g>
</g>
<g>
	<g>
		<g>
			<path fill="#FFFFFF" d="M21.156,27.473h-3.295c-0.303,0-0.549,0.242-0.549,0.547v3.295c0,0.304,0.246,0.549,0.549,0.549h3.295
				c0.303,0,0.549-0.245,0.549-0.549V28.02C21.705,27.715,21.459,27.473,21.156,27.473z"/>
		</g>
	</g>
	<g>
		<g>
			<path fill="#FFFFFF" d="M26.648,27.473h-3.297c-0.303,0-0.549,0.242-0.549,0.547v3.295c0,0.304,0.246,0.549,0.549,0.549h3.297
				c0.301,0,0.549-0.245,0.549-0.549V28.02C27.197,27.715,26.949,27.473,26.648,27.473z"/>
		</g>
	</g>
	<g>
		<g>
			<path fill="#FFFFFF" d="M32.139,27.473h-3.295c-0.303,0-0.549,0.242-0.549,0.547v3.295c0,0.304,0.246,0.549,0.549,0.549h3.295
				c0.303,0,0.549-0.245,0.549-0.549V28.02C32.688,27.715,32.441,27.473,32.139,27.473z"/>
		</g>
	</g>
</g>
<g>
	<g>
		<g>
			<path fill="#FFFFFF" d="M21.156,21.981h-3.295c-0.303,0-0.549,0.244-0.549,0.548v3.293c0,0.303,0.246,0.551,0.549,0.551h3.295
				c0.303,0,0.549-0.248,0.549-0.551v-3.293C21.705,22.225,21.459,21.981,21.156,21.981z"/>
		</g>
	</g>
	<g>
		<g>
			<path fill="#FFFFFF" d="M26.648,21.981h-3.297c-0.303,0-0.549,0.244-0.549,0.548v3.293c0,0.303,0.246,0.551,0.549,0.551h3.297
				c0.301,0,0.549-0.248,0.549-0.551v-3.293C27.197,22.225,26.949,21.981,26.648,21.981z"/>
		</g>
	</g>
	<g>
		<g>
			<path fill="#FFFFFF" d="M32.139,21.981h-3.295c-0.303,0-0.549,0.244-0.549,0.548v3.293c0,0.303,0.246,0.551,0.549,0.551h3.295
				c0.303,0,0.549-0.248,0.549-0.551v-3.293C32.688,22.225,32.441,21.981,32.139,21.981z"/>
		</g>
	</g>
</g>
<g>
	<g>
		<g>
			<path fill="#FFFFFF" d="M21.156,16.488h-3.295c-0.303,0-0.549,0.245-0.549,0.549v3.294c0,0.306,0.246,0.551,0.549,0.551h3.295
				c0.303,0,0.549-0.245,0.549-0.551v-3.294C21.705,16.733,21.459,16.488,21.156,16.488z"/>
		</g>
	</g>
	<g>
		<g>
			<path fill="#FFFFFF" d="M26.648,16.488h-3.297c-0.303,0-0.549,0.245-0.549,0.549v3.294c0,0.306,0.246,0.551,0.549,0.551h3.297
				c0.301,0,0.549-0.245,0.549-0.551v-3.294C27.197,16.733,26.949,16.488,26.648,16.488z"/>
		</g>
	</g>
	<g>
		<g>
			<path fill="#FFFFFF" d="M32.139,16.488h-3.295c-0.303,0-0.549,0.245-0.549,0.549v3.294c0,0.306,0.246,0.551,0.549,0.551h3.295
				c0.303,0,0.549-0.245,0.549-0.551v-3.294C32.688,16.733,32.441,16.488,32.139,16.488z"/>
		</g>
	</g>
</g>
<g>
	<g>
		<g>
			<path fill="#FFFFFF" d="M21.156,10.997h-3.295c-0.303,0-0.549,0.246-0.549,0.55v3.294c0,0.304,0.246,0.55,0.549,0.55h3.295
				c0.303,0,0.549-0.246,0.549-0.55v-3.294C21.705,11.243,21.459,10.997,21.156,10.997z"/>
		</g>
	</g>
	<g>
		<g>
			<path fill="#FFFFFF" d="M26.648,10.997h-3.297c-0.303,0-0.549,0.246-0.549,0.55v3.294c0,0.304,0.246,0.55,0.549,0.55h3.297
				c0.301,0,0.549-0.246,0.549-0.55v-3.294C27.197,11.243,26.949,10.997,26.648,10.997z"/>
		</g>
	</g>
	<g>
		<g>
			<path fill="#FFFFFF" d="M32.139,10.997h-3.295c-0.303,0-0.549,0.246-0.549,0.55v3.294c0,0.304,0.246,0.55,0.549,0.55h3.295
				c0.303,0,0.549-0.246,0.549-0.55v-3.294C32.688,11.243,32.441,10.997,32.139,10.997z"/>
		</g>
	</g>
</g>
</svg>
