<?xml version="1.0" encoding="utf-8"?>
<!-- Generator: Adobe Illustrator 16.0.0, SVG Export Plug-In . SVG Version: 6.00 Build 0)  -->
<!DOCTYPE svg PUBLIC "-//W3C//DTD SVG 1.1//EN" "http://www.w3.org/Graphics/SVG/1.1/DTD/svg11.dtd">
<svg version="1.1" id="Layer_1" xmlns="http://www.w3.org/2000/svg" xmlns:xlink="http://www.w3.org/1999/xlink" x="0px" y="0px"
	 width="40px" height="30px" viewBox="0 0 40 30" enable-background="new 0 0 40 30" xml:space="preserve">
<g>
	<rect fill="#FFFFFF" width="40" height="30"/>
	<rect fill="#2F742E" width="20.917" height="30.208"/>
	<path fill="#C0003B" d="M25.187,19.437c-2.555,2.046-6.285,1.632-8.33-0.922c-2.044-2.554-1.631-6.283,0.923-8.329
		c2.554-2.044,6.284-1.632,8.329,0.923c-0.65-1.125-1.586-2.06-2.711-2.71c-3.542-2.045-8.072-0.832-10.118,2.71
		c-2.044,3.542-0.831,8.072,2.71,10.117c3.543,2.047,8.074,0.83,10.119-2.711C25.836,18.854,25.526,19.164,25.187,19.437
		L25.187,19.437z"/>
	<polygon fill="#C0003B" points="22.252,16.156 23.834,18.332 23.834,15.644 26.394,14.811 23.834,13.98 23.834,11.289 
		22.254,13.466 19.694,12.636 21.276,14.811 19.694,16.988 	"/>
</g>
</svg>
