<?xml version="1.0" encoding="utf-8"?>
<!-- Generator: Adobe Illustrator 16.0.0, SVG Export Plug-In . SVG Version: 6.00 Build 0)  -->
<!DOCTYPE svg PUBLIC "-//W3C//DTD SVG 1.1//EN" "http://www.w3.org/Graphics/SVG/1.1/DTD/svg11.dtd">
<svg version="1.1" id="Layer_1" xmlns="http://www.w3.org/2000/svg" xmlns:xlink="http://www.w3.org/1999/xlink" x="0px" y="0px"
	 width="40px" height="30px" viewBox="0 0 40 30" enable-background="new 0 0 40 30" xml:space="preserve">
<g>
	<g>
		<defs>
			<rect id="SVGID_1_" width="40" height="30"/>
		</defs>
		<clipPath id="SVGID_2_">
			<use xlink:href="#SVGID_1_"  overflow="visible"/>
		</clipPath>
		<rect clip-path="url(#SVGID_2_)" fill="#438FC3" width="40" height="30"/>
		<rect y="9.999" clip-path="url(#SVGID_2_)" fill="#D6003F" width="40" height="10.001"/>
		<rect y="20" clip-path="url(#SVGID_2_)" fill="#48AE68" width="40" height="10"/>
		<g clip-path="url(#SVGID_2_)">
			<defs>
				<rect id="SVGID_3_" width="40" height="30"/>
			</defs>
			<clipPath id="SVGID_4_">
				<use xlink:href="#SVGID_3_"  overflow="visible"/>
			</clipPath>
			<path clip-path="url(#SVGID_4_)" fill="#FFFFFF" d="M20.789,18.502c-1.503,0-2.721-1.569-2.721-3.503
				c0-1.933,1.218-3.499,2.721-3.499c0.546,0,1.052,0.207,1.479,0.561c-0.594-0.778-1.42-1.261-2.333-1.261
				c-1.803,0-3.266,1.88-3.266,4.199c0,2.323,1.463,4.201,3.266,4.201c0.914,0,1.74-0.481,2.333-1.26
				C21.841,18.295,21.335,18.502,20.789,18.502"/>
			<polygon clip-path="url(#SVGID_4_)" fill="#FFFFFF" points="24.476,16.594 23.584,16.07 23.238,17.251 22.894,16.07 
				22.001,16.589 22.407,15.441 21.489,14.999 22.407,14.556 22.004,13.408 22.896,13.928 23.241,12.751 23.585,13.931 
				24.478,13.409 24.072,14.556 24.988,15.001 24.072,15.444 			"/>
		</g>
	</g>
</g>
</svg>
