<?xml version="1.0" encoding="utf-8"?>
<!-- Generator: Adobe Illustrator 16.0.0, SVG Export Plug-In . SVG Version: 6.00 Build 0)  -->
<!DOCTYPE svg PUBLIC "-//W3C//DTD SVG 1.1//EN" "http://www.w3.org/Graphics/SVG/1.1/DTD/svg11.dtd">
<svg version="1.1" id="Layer_1" xmlns="http://www.w3.org/2000/svg" xmlns:xlink="http://www.w3.org/1999/xlink" x="0px" y="0px"
	 width="40px" height="30px" viewBox="0 0 40 30" enable-background="new 0 0 40 30" xml:space="preserve">
<g>
	<g>
		<defs>
			<rect id="SVGID_1_" width="51.667" height="30.141"/>
		</defs>
		<clipPath id="SVGID_2_">
			<use xlink:href="#SVGID_1_"  overflow="visible"/>
		</clipPath>
		<polygon clip-path="url(#SVGID_2_)" fill="#FFFFFF" points="13.876,12.688 18.163,12.688 18.163,8.401 21.838,8.401 
			21.838,12.688 26.123,12.688 26.123,16.362 21.838,16.362 21.838,20.649 18.163,20.649 18.163,16.362 13.876,16.362 		"/>
	</g>
</g>
<g>
	<g>
		<defs>
			<rect id="SVGID_3_" width="40" height="30.141"/>
		</defs>
		<clipPath id="SVGID_4_">
			<use xlink:href="#SVGID_3_"  overflow="visible"/>
		</clipPath>
		<rect clip-path="url(#SVGID_4_)" fill="#1C2A7D" width="40" height="30.141"/>
		<rect y="5.023" clip-path="url(#SVGID_4_)" fill="#FFFFFF" width="40" height="20.093"/>
		<rect y="10.046" clip-path="url(#SVGID_4_)" fill="#BC0030" width="40" height="10.047"/>
	</g>
</g>
</svg>
