<?xml version="1.0" encoding="utf-8"?>
<!-- Generator: Adobe Illustrator 16.0.0, SVG Export Plug-In . SVG Version: 6.00 Build 0)  -->
<!DOCTYPE svg PUBLIC "-//W3C//DTD SVG 1.1//EN" "http://www.w3.org/Graphics/SVG/1.1/DTD/svg11.dtd">
<svg version="1.1" id="Layer_1" xmlns="http://www.w3.org/2000/svg" xmlns:xlink="http://www.w3.org/1999/xlink" x="0px" y="0px"
	 width="40px" height="30px" viewBox="0 0 40 30" enable-background="new 0 0 40 30" xml:space="preserve">
<g>
	<g>
		<defs>
			<rect id="SVGID_1_" x="0" width="40" height="30"/>
		</defs>
		<clipPath id="SVGID_2_">
			<use xlink:href="#SVGID_1_"  overflow="visible"/>
		</clipPath>
		<rect x="0" y="26.668" clip-path="url(#SVGID_2_)" fill="#16007E" width="40" height="3.332"/>
		<rect x="0" y="23.334" clip-path="url(#SVGID_2_)" fill="#FFFFFF" width="40" height="3.333"/>
		<rect x="0" y="20.001" clip-path="url(#SVGID_2_)" fill="#16007E" width="40" height="3.333"/>
		<rect x="0" y="16.667" clip-path="url(#SVGID_2_)" fill="#FFFFFF" width="40" height="3.334"/>
		<rect x="0" y="13.333" clip-path="url(#SVGID_2_)" fill="#16007E" width="40" height="3.333"/>
		<rect x="0" y="10" clip-path="url(#SVGID_2_)" fill="#FFFFFF" width="40" height="3.333"/>
		<rect x="0" y="6.667" clip-path="url(#SVGID_2_)" fill="#16007E" width="40" height="3.333"/>
		<rect x="0" y="3.333" clip-path="url(#SVGID_2_)" fill="#FFFFFF" width="40" height="3.334"/>
		<rect x="0" clip-path="url(#SVGID_2_)" fill="#16007E" width="40" height="3.333"/>
		<rect x="0" clip-path="url(#SVGID_2_)" fill="#16007E" width="16.667" height="16.667"/>
		<rect x="0" y="6.667" clip-path="url(#SVGID_2_)" fill="#FFFFFF" width="16.667" height="3.333"/>
		<rect x="6.665" clip-path="url(#SVGID_2_)" fill="#FFFFFF" width="3.334" height="16.667"/>
	</g>
</g>
</svg>
