<?xml version="1.0" encoding="utf-8"?>
<!-- Generator: Adobe Illustrator 16.0.0, SVG Export Plug-In . SVG Version: 6.00 Build 0)  -->
<!DOCTYPE svg PUBLIC "-//W3C//DTD SVG 1.1//EN" "http://www.w3.org/Graphics/SVG/1.1/DTD/svg11.dtd">
<svg version="1.1" id="Layer_1" xmlns="http://www.w3.org/2000/svg" xmlns:xlink="http://www.w3.org/1999/xlink" x="0px" y="0px"
	 width="40px" height="30px" viewBox="0 0 40 30" enable-background="new 0 0 40 30" xml:space="preserve">
<g>
	<defs>
		<rect id="SVGID_1_" y="-0.016" width="40" height="30.016"/>
	</defs>
	<clipPath id="SVGID_2_">
		<use xlink:href="#SVGID_1_"  overflow="visible"/>
	</clipPath>
	<g clip-path="url(#SVGID_2_)">
		<g>
			<defs>
				<rect id="SVGID_3_" x="-6.977" y="-0.016" width="51.453" height="30.016"/>
			</defs>
			<clipPath id="SVGID_4_">
				<use xlink:href="#SVGID_3_"  overflow="visible"/>
			</clipPath>
			<rect x="-6.977" y="-0.016" clip-path="url(#SVGID_4_)" fill="#3D9635" width="51.453" height="30.016"/>
			<g clip-path="url(#SVGID_4_)">
				<defs>
					<rect id="SVGID_5_" x="-6.977" y="-0.016" width="51.453" height="30.016"/>
				</defs>
				<clipPath id="SVGID_6_">
					<use xlink:href="#SVGID_5_"  overflow="visible"/>
				</clipPath>
				<path clip-path="url(#SVGID_6_)" fill="#F4C327" d="M18.751,1.547c5.352,0,9.691,4.339,9.691,9.692s-4.34,9.693-9.691,9.693
					c-5.354,0-9.693-4.34-9.693-9.693S13.397,1.547,18.751,1.547"/>
				<path clip-path="url(#SVGID_6_)" fill="#3D9635" d="M9.371,8.738c0,5.181,4.2,9.38,9.38,9.38c5.179,0,9.378-4.199,9.378-9.38
					V1.235H9.371"/>
				<polygon clip-path="url(#SVGID_6_)" fill="#F4C327" points="18.751,4.987 17.59,8.555 19.375,9.135 				"/>
				<polygon clip-path="url(#SVGID_6_)" fill="#F4C327" points="18.751,4.987 19.909,8.555 18.125,9.135 				"/>
				<polygon clip-path="url(#SVGID_6_)" fill="#F4C327" points="22.318,7.579 18.567,7.579 18.567,9.455 				"/>
				<polygon clip-path="url(#SVGID_6_)" fill="#F4C327" points="22.318,7.579 19.283,9.785 18.181,8.267 				"/>
				<polygon clip-path="url(#SVGID_6_)" fill="#F4C327" points="15.182,7.579 18.217,9.785 19.319,8.267 				"/>
				<polygon clip-path="url(#SVGID_6_)" fill="#F4C327" points="15.182,7.579 18.933,7.579 18.933,9.455 				"/>
				<polygon clip-path="url(#SVGID_6_)" fill="#F4C327" points="20.956,11.774 19.796,8.205 18.012,8.785 				"/>
				<polygon clip-path="url(#SVGID_6_)" fill="#F4C327" points="20.956,11.774 17.92,9.568 19.022,8.05 				"/>
				<polygon clip-path="url(#SVGID_6_)" fill="#F4C327" points="16.545,11.774 19.58,9.568 18.478,8.05 				"/>
				<polygon clip-path="url(#SVGID_6_)" fill="#F4C327" points="16.545,11.774 17.704,8.205 19.488,8.785 				"/>
			</g>
		</g>
	</g>
</g>
</svg>
