<?xml version="1.0" encoding="utf-8"?>
<!-- Generator: Adobe Illustrator 16.0.0, SVG Export Plug-In . SVG Version: 6.00 Build 0)  -->
<!DOCTYPE svg PUBLIC "-//W3C//DTD SVG 1.1//EN" "http://www.w3.org/Graphics/SVG/1.1/DTD/svg11.dtd">
<svg version="1.1" id="Layer_1" xmlns="http://www.w3.org/2000/svg" xmlns:xlink="http://www.w3.org/1999/xlink" x="0px" y="0px"
	 width="40px" height="30px" viewBox="0 0 40 30" enable-background="new 0 0 40 30" xml:space="preserve">
<g>
	<defs>
		<rect id="SVGID_1_" width="40" height="30.005"/>
	</defs>
	<clipPath id="SVGID_2_">
		<use xlink:href="#SVGID_1_"  overflow="visible"/>
	</clipPath>
	<g clip-path="url(#SVGID_2_)">
		<g>
			<defs>
				<rect id="SVGID_3_" width="51.438" height="30.005"/>
			</defs>
			<clipPath id="SVGID_4_">
				<use xlink:href="#SVGID_3_"  overflow="visible"/>
			</clipPath>
			<rect clip-path="url(#SVGID_4_)" fill="#2A4B9E" width="51.438" height="5.001"/>
			<rect y="25.005" clip-path="url(#SVGID_4_)" fill="#2A4B9E" width="51.438" height="5"/>
			<rect y="5.835" clip-path="url(#SVGID_4_)" fill="#D90031" width="51.438" height="18.337"/>
			<rect y="5.001" clip-path="url(#SVGID_4_)" fill="#FFFFFF" width="51.438" height="0.833"/>
			<rect y="24.172" clip-path="url(#SVGID_4_)" fill="#FFFFFF" width="51.438" height="0.833"/>
			<g clip-path="url(#SVGID_4_)">
				<defs>
					<rect id="SVGID_5_" width="51.438" height="30.005"/>
				</defs>
				<clipPath id="SVGID_6_">
					<use xlink:href="#SVGID_5_"  overflow="visible"/>
				</clipPath>
				<path clip-path="url(#SVGID_6_)" fill="#FFFFFF" d="M20.004,8.334c3.683,0,6.668,2.986,6.668,6.668s-2.985,6.668-6.668,6.668
					s-6.668-2.985-6.668-6.668S16.321,8.334,20.004,8.334"/>
				<polygon clip-path="url(#SVGID_6_)" fill="#D90031" points="20.004,8.544 21.454,13.007 26.146,13.007 22.351,15.766 
					23.8,20.229 20.004,17.47 16.207,20.229 17.657,15.766 13.86,13.007 18.553,13.007 				"/>
			</g>
		</g>
	</g>
</g>
</svg>
