<?xml version="1.0" encoding="utf-8"?>
<!-- Generator: Adobe Illustrator 16.0.0, SVG Export Plug-In . SVG Version: 6.00 Build 0)  -->
<!DOCTYPE svg PUBLIC "-//W3C//DTD SVG 1.1//EN" "http://www.w3.org/Graphics/SVG/1.1/DTD/svg11.dtd">
<svg version="1.1" id="Layer_1" xmlns="http://www.w3.org/2000/svg" xmlns:xlink="http://www.w3.org/1999/xlink" x="0px" y="0px"
	 width="40px" height="30px" viewBox="0 0 40 30" enable-background="new 0 0 40 30" xml:space="preserve">
<g>
	<g>
		<defs>
			<rect id="SVGID_1_" width="51.427" height="30"/>
		</defs>
		<clipPath id="SVGID_2_">
			<use xlink:href="#SVGID_1_"  overflow="visible"/>
		</clipPath>
		<polygon clip-path="url(#SVGID_2_)" fill="#681840" points="15.333,0 19.106,1.668 15.333,3.334 19.106,5.001 15.333,6.668 
			19.106,8.334 15.333,10 19.106,11.667 15.333,13.334 19.106,15 15.333,16.668 19.106,18.334 15.333,20 19.106,21.667 
			15.333,23.333 19.106,24.999 15.333,26.667 19.106,28.334 15.333,30 40.26,30 40.26,0 		"/>
		<polygon clip-path="url(#SVGID_2_)" fill="#FFFFFF" points="0,0 0,30 15.333,30 20.797,28.334 15.333,26.667 20.797,24.999 
			15.333,23.333 20.797,21.667 15.333,20 20.797,18.334 15.333,16.668 20.797,15 15.333,13.334 20.797,11.667 15.333,10 
			20.797,8.334 15.333,6.668 20.797,5.001 15.333,3.334 20.797,1.668 15.333,0 		"/>
	</g>
</g>
</svg>
