<?xml version="1.0" encoding="utf-8"?>
<!-- Generator: Adobe Illustrator 16.0.0, SVG Export Plug-In . SVG Version: 6.00 Build 0)  -->
<!DOCTYPE svg PUBLIC "-//W3C//DTD SVG 1.1//EN" "http://www.w3.org/Graphics/SVG/1.1/DTD/svg11.dtd">
<svg version="1.1" id="Layer_1" xmlns="http://www.w3.org/2000/svg" xmlns:xlink="http://www.w3.org/1999/xlink" x="0px" y="0px"
	 width="40px" height="30px" viewBox="0 0 40 30" enable-background="new 0 0 40 30" xml:space="preserve">
<g>
	<defs>
		<rect id="SVGID_1_" width="40" height="30"/>
	</defs>
	<clipPath id="SVGID_2_">
		<use xlink:href="#SVGID_1_"  overflow="visible"/>
	</clipPath>
	<g clip-path="url(#SVGID_2_)">
		<g>
			<defs>
				<rect id="SVGID_3_" width="51.428" height="30"/>
			</defs>
			<clipPath id="SVGID_4_">
				<use xlink:href="#SVGID_3_"  overflow="visible"/>
			</clipPath>
			<rect clip-path="url(#SVGID_4_)" fill="#C0003B" width="51.428" height="15"/>
			<rect y="15" clip-path="url(#SVGID_4_)" fill="#3D9546" width="51.428" height="15"/>
			<polygon clip-path="url(#SVGID_4_)" points="0,0 0,30 29.096,15 			"/>
			<rect y="12.316" clip-path="url(#SVGID_4_)" width="51.428" height="5.369"/>
			<polygon clip-path="url(#SVGID_4_)" fill="#F5CD28" points="0,27.869 24.959,15 0,2.131 			"/>
			<rect y="14.21" clip-path="url(#SVGID_4_)" fill="#F5CD28" width="51.428" height="1.58"/>
			<polygon clip-path="url(#SVGID_4_)" points="0,26.092 21.515,15 0,3.909 			"/>
			<g clip-path="url(#SVGID_4_)">
				<defs>
					<rect id="SVGID_5_" width="51.428" height="30"/>
				</defs>
				<clipPath id="SVGID_6_">
					<use xlink:href="#SVGID_5_"  overflow="visible"/>
				</clipPath>
				<path clip-path="url(#SVGID_6_)" fill="#F3CD2D" d="M6.078,17.87v1.709c1.486,0,4.405-1.141,4.405-4.809
					c0-3.668-3.113-4.349-4.044-4.349s-3.807,0.666-3.807,3.668c0,3.001,2.82,3.28,3.376,3.28c0.557,0,2.641-0.5,2.404-2.75
					c0,0.638-0.722,1.986-2.236,1.986c-1.516,0-2.46-1.125-2.46-2.237c0-1.111,0.917-2.599,2.515-2.599
					c1.598,0,2.766,1.417,2.766,2.85C8.996,16.05,7.871,17.87,6.078,17.87L6.078,17.87z"/>
				<path clip-path="url(#SVGID_6_)" fill="#F3CD2D" d="M4.774,15.645l0.089,0.057c0,0,0.703-1.604,2.596-2.746
					C7.219,13.085,5.952,13.716,4.774,15.645L4.774,15.645z"/>
				<g clip-path="url(#SVGID_6_)">
					<path fill="#F3CD2D" d="M4.875,15.74l-0.114-0.072c0.511-0.888,1.395-2.045,2.656-2.72l0.001,0.001
						c-0.375,0.221-0.716,0.48-1.023,0.756c0.293-0.26,0.633-0.518,1.024-0.756l0.053,0.029c-1.862,1.123-2.578,2.718-2.584,2.733
						L4.875,15.74L4.875,15.74z M5.447,14.724c-0.259,0.327-0.475,0.648-0.65,0.936l0.051,0.013
						C4.889,15.585,5.076,15.208,5.447,14.724L5.447,14.724z"/>
				</g>
				<path clip-path="url(#SVGID_6_)" fill="#F3CD2D" d="M4.957,15.368c0,0-0.219-0.448-0.025-0.646
					c0.192-0.198,0.104,0.526,0.104,0.526l0.083-0.119c0,0-0.13-0.549,0.016-0.664c0.146-0.113,0.073,0.527,0.073,0.527l0.089-0.116
					c0,0-0.094-0.531,0.046-0.63c0.141-0.099,0.053,0.5,0.053,0.5l0.104-0.12c0,0-0.079-0.505,0.094-0.625
					c0.171-0.12,0.021,0.48,0.021,0.48l0.115-0.125c0,0-0.052-0.463,0.094-0.569c0.146-0.104,0.021,0.438,0.021,0.438l0.104-0.11
					c0,0-0.032-0.433,0.11-0.531c0.14-0.099,0.009,0.412,0.009,0.412l0.111-0.104c0,0-0.027-0.433,0.15-0.517
					c0.177-0.083-0.032,0.407-0.032,0.407l0.12-0.104c0,0,0.038-0.506,0.188-0.553c0.151-0.046-0.068,0.448-0.068,0.448l0.109-0.088
					c0,0,0.058-0.432,0.225-0.484c0.167-0.052-0.104,0.396-0.104,0.396l0.109-0.083c0,0,0.121-0.434,0.276-0.479
					c0.156-0.047-0.162,0.405-0.162,0.405l0.104-0.072c0,0,0.173-0.392,0.313-0.417c0.141-0.027-0.156,0.322-0.156,0.322l0.13-0.078
					c0,0,0.223-0.406,0.302-0.281c0.078,0.125-0.313,0.308-0.313,0.308l-0.13,0.072c0,0,0.475-0.223,0.532-0.108
					c0.057,0.114-0.652,0.187-0.652,0.187l-0.115,0.079c0,0,0.475-0.131,0.417-0.012c-0.057,0.121-0.526,0.095-0.526,0.095
					l-0.109,0.078c0,0,0.475-0.115,0.412-0.006c-0.063,0.11-0.526,0.099-0.526,0.099l-0.115,0.094c0,0,0.463-0.119,0.396,0.021
					c-0.068,0.142-0.594,0.136-0.594,0.136l-0.13,0.121c0,0,0.49-0.167,0.448-0.037c-0.041,0.129-0.599,0.198-0.599,0.198
					l-0.126,0.125c0,0,0.527-0.178,0.371-0.016c-0.157,0.161-0.537,0.204-0.537,0.204l-0.151,0.182c0,0,0.521-0.312,0.448-0.136
					c-0.072,0.178-0.583,0.297-0.583,0.297l-0.104,0.125c0,0,0.469-0.27,0.421-0.119C5.77,14.853,5.27,15.015,5.27,15.015
					l-0.083,0.115c0,0,0.552-0.329,0.506-0.162c-0.047,0.167-0.574,0.286-0.574,0.286l-0.068,0.104c0,0,0.511-0.291,0.516-0.151
					c0.005,0.142-0.599,0.281-0.599,0.281L4.957,15.368z"/>
				<path clip-path="url(#SVGID_6_)" fill="#F3CD2D" d="M7.774,15.645l-0.088,0.057c0,0-0.704-1.604-2.595-2.746
					C5.33,13.085,6.597,13.716,7.774,15.645L7.774,15.645z"/>
				<g clip-path="url(#SVGID_6_)">
					<path fill="#F3CD2D" d="M7.674,15.74l-0.013-0.028c-0.007-0.016-0.722-1.61-2.584-2.733l0.02-0.01l-0.006-0.013l0.014-0.022
						c0.009,0.005,0.019,0.011,0.028,0.017l0.001-0.001c1.261,0.677,2.144,1.832,2.662,2.682L7.674,15.74L7.674,15.74z
						 M6.931,14.508c0.472,0.57,0.71,1.039,0.766,1.155l0.063-0.04C7.544,15.29,7.268,14.9,6.931,14.508L6.931,14.508z"/>
				</g>
				<path clip-path="url(#SVGID_6_)" fill="#F3CD2D" d="M7.592,15.368c0,0,0.218-0.448,0.026-0.646
					c-0.193-0.198-0.104,0.526-0.104,0.526L7.43,15.129c0,0,0.13-0.549-0.016-0.664c-0.145-0.113-0.072,0.527-0.072,0.527
					l-0.088-0.116c0,0,0.093-0.531-0.046-0.63c-0.142-0.099-0.052,0.5-0.052,0.5l-0.105-0.12c0,0,0.079-0.505-0.093-0.625
					c-0.172-0.12-0.022,0.48-0.022,0.48l-0.113-0.125c0,0,0.052-0.463-0.094-0.569c-0.146-0.104-0.021,0.438-0.021,0.438
					l-0.105-0.11c0,0,0.031-0.433-0.109-0.531c-0.141-0.099-0.011,0.412-0.011,0.412l-0.11-0.104c0,0,0.027-0.433-0.151-0.517
					c-0.176-0.083,0.032,0.407,0.032,0.407l-0.12-0.104c0,0-0.036-0.506-0.188-0.553c-0.152-0.046,0.068,0.448,0.068,0.448
					l-0.11-0.088c0,0-0.058-0.432-0.225-0.484c-0.167-0.052,0.105,0.396,0.105,0.396l-0.11-0.083c0,0-0.12-0.434-0.277-0.479
					c-0.155-0.047,0.162,0.405,0.162,0.405l-0.104-0.072c0,0-0.173-0.392-0.313-0.417c-0.141-0.027,0.156,0.322,0.156,0.322
					l-0.131-0.078c0,0-0.223-0.406-0.302-0.281c-0.078,0.125,0.313,0.308,0.313,0.308l0.13,0.072c0,0-0.475-0.223-0.531-0.108
					C4.72,13.102,5.43,13.174,5.43,13.174l0.114,0.079c0,0-0.474-0.131-0.416-0.012c0.057,0.121,0.526,0.095,0.526,0.095
					l0.109,0.078c0,0-0.473-0.115-0.41-0.006c0.061,0.11,0.524,0.099,0.524,0.099l0.115,0.094c0,0-0.463-0.119-0.396,0.021
					c0.067,0.142,0.594,0.136,0.594,0.136l0.13,0.121c0,0-0.489-0.167-0.448-0.037c0.042,0.129,0.599,0.198,0.599,0.198l0.125,0.125
					c0,0-0.526-0.178-0.37-0.016c0.156,0.161,0.537,0.204,0.537,0.204l0.15,0.182c0,0-0.521-0.312-0.448-0.136
					c0.072,0.178,0.583,0.297,0.583,0.297l0.105,0.125c0,0-0.47-0.27-0.423-0.119c0.047,0.151,0.547,0.313,0.547,0.313l0.083,0.115
					c0,0-0.552-0.329-0.505-0.162c0.047,0.167,0.573,0.286,0.573,0.286l0.069,0.104c0,0-0.511-0.291-0.517-0.151
					c-0.005,0.142,0.6,0.281,0.6,0.281L7.592,15.368z"/>
			</g>
		</g>
	</g>
</g>
</svg>
